Data report - Gapminder dataset
…
gapminder_2022 <- gapminder %>% 
  filter(year==2022)

1. Exploring a quantiative numeric variable (ratio)

Life expectancy is an example (lifeExp). Let’s have a look at this variable. Let’s use select function

Code

gapminder_2022 %>%
  select(country,
         lifeExp)

# A tibble: 194 × 2
   country             lifeExp
   <chr>                 <dbl>
 1 Afghanistan            68  
 2 Albania                78.7
 3 Algeria                75.7
 4 Andorra                83.2
 5 Angola                 64  
 6 Antigua and Barbuda    77.3
 7 Argentina              76.3
 8 Armenia                77.6
 9 Australia              83.1
10 Austria                81.5
# ℹ 184 more rows

Because these are numeric values, we can sort the data based on this variable. Let’s use arrange function.

Code

gapminder_2022 %>%
  select(country,
         lifeExp) %>%
  arrange(lifeExp)

# A tibble: 194 × 2
   country                  lifeExp
   <chr>                      <dbl>
 1 Central African Republic    54.6
 2 South Sudan                 56.3
 3 Lesotho                     57.2
 4 Chad                        57.7
 5 Sierra Leone                58.6
 6 Nauru                       58.7
 7 Niger                       58.8
 8 Eswatini                    59.3
 9 Guinea-Bissau               60.6
10 Congo, Dem. Rep.            60.7
# ℹ 184 more rows

The default is ascending. Let’s switch to descending by adding %>% desc()

Code

gapminder_2022 %>%
  select(country,
         lifeExp) %>%
  arrange(lifeExp %>% desc())

# A tibble: 194 × 2
   country       lifeExp
   <chr>           <dbl>
 1 Singapore        84.6
 2 Japan            84.2
 3 San Marino       84  
 4 Switzerland      83.7
 5 Liechtenstein    83.4
 6 Andorra          83.2
 7 Australia        83.1
 8 Israel           83.1
 9 Sweden           83.1
10 Luxembourg       83  
# ℹ 184 more rows
…
